…
### Task 2

#### Part 1

Fix the time variables (time, young_rider_time) in your tidy data frame so each cyclist's stage time is given rather than just the winner's time and time back from the winner. For example, rather than "04:22.47", "+00:00.00", "+00:00.00", "+00:00.00", ... in stage 1, it should be changed to "04:22.47", "04:22.47", "04:22.47", "04:22.47", .... You may keep the result as type character or change it to a reasonable date/time data type.


```r
tdf_clean %>%
  filter(!is.na(young_rider_rank)) #seems to be an error, time is greater for rank 27 than 28 in stage 1
```

```
# A tibble: 501 x 18
   stage rider_name rider_nat team_name team_nat dep_city arr_city
   <int> <chr>      <chr>     <chr>     <chr>    <chr>    <chr>   
 1     1 Ewan, Cal… Australia Lotto So… Belgium  Brussels Brussels
 2     1 Jansen Gr… Norway    Team Jum… Netherl… Brussels Brussels
 3     1 Van Aert,… Belgium   Team Jum… Netherl… Brussels Brussels
 4     1 Asgreen, … Denmark   Deceunin… Belgium  Brussels Brussels
 5     1 Bol, Cees  Netherla… Team Sun… Netherl… Brussels Brussels
 6     1 Garcia Co… Spain     Bahrain … Bahrain  Brussels Brussels
 7     1 Philipsen… Belgium   UAE Team… United … Brussels Brussels
 8     1 Mas Nicol… Spain     Deceunin… Belgium  Brussels Brussels
 9     1 Benoot, T… Belgium   Lotto So… Belgium  Brussels Brussels
10     1 Politt, N… Germany   Team Kat… Switzer… Brussels Brussels
# … with 491 more rows, and 11 more variables: classification <chr>,
#   distance <dbl>, start_date <date>, time <chr>, time_rank <int>,
#   sprint_pts <dbl>, sprint_rank <int>, climb_pts <dbl>, climb_rank <int>,
#   young_rider_time <chr>, young_rider_rank <int>
```
…
